Figure 1
…
print('maximum tropical cyclone exposure days in single month')

## [1] "maximum tropical cyclone exposure days in single month"

print(max(counties.wind.rolling$count))

## [1] 3

tc_states = counties.wind.rolling %>% filter(count>0) %>% group_by(state_fips) %>% tally(count) %>% arrange(desc(n))
print(tc_states)

## # A tibble: 31 x 2
##    state_fips     n
##    <chr>      <dbl>
##  1 37           907
##  2 12           740
##  3 51           491
##  4 22           405
##  5 48           376
##  6 13           362
##  7 45           307
##  8 28           233
##  9 01           209
## 10 34           105
## #  with 21 more rows

tc_counties = counties.wind.rolling %>% filter(count>0) %>% group_by(fips) %>% tally(count) %>% arrange(desc(n))
print(tc_counties)

## # A tibble: 1,206 x 2
##    fips      n
##    <fct> <dbl>
##  1 37013    26
##  2 37137    26
##  3 37049    25
##  4 37103    25
##  5 37187    25
##  6 37031    24
##  7 37055    24
##  8 37095    24
##  9 37019    23
## 10 37177    23
## #  with 1,196 more rows
…
hurricane_counties = counties.wind.rolling %>% filter(count>0,category=='hurricane') %>% group_by(fips) %>% tally(count) %>% arrange(desc(n))
print(hurricane_counties)

## # A tibble: 153 x 2
##    fips      n
##    <fct> <dbl>
##  1 37019     5
##  2 37129     5
##  3 37133     5
##  4 37137     5
##  5 37141     5
##  6 12011     4
##  7 12021     4
##  8 12099     4
##  9 37031     4
## 10 12033     3
## #  with 143 more rows
…
